<?xml version="1.0" encoding="UTF-8"?>
<svg width="142px" height="142px" viewBox="0 0 142 142" version="1.1" xmlns="http://www.w3.org/2000/svg" xmlns:xlink="http://www.w3.org/1999/xlink">
    <!-- Generator: Sketch 58 (84663) - https://sketch.com -->
    <title>Group 9</title>
    <desc>Created with Sketch.</desc>
    <defs>
        <circle id="path-1" cx="71" cy="71" r="71"></circle>
        <polygon id="path-3" points="0 0.246508249 66.1147582 0.246508249 66.1147582 129.124803 0 129.124803"></polygon>
        <polygon id="path-5" points="0 0.246640566 66.1146397 0.246640566 66.1146397 129.124608 0 129.124608"></polygon>
    </defs>
    <g id="Mobile" stroke="none" stroke-width="1" fill="none" fill-rule="evenodd">
        <g id="notification" transform="translate(-105.000000, -329.000000)">
            <g id="Group-9" transform="translate(105.000000, 329.000000)">
                <mask id="mask-2" fill="white">
                    <use xlink:href="#path-1"></use>
                </mask>
                <use id="Mask" fill="#EFF5F9" xlink:href="#path-1"></use>
                <g mask="url(#mask-2)">
                    <g transform="translate(75.363383, 57.651920) rotate(19.000000) translate(-75.363383, -57.651920) translate(39.363383, -7.848080)">
                        <g id="Group-3" stroke-width="1" fill="none" transform="translate(0.000000, 0.938228)">
                            <mask id="mask-4" fill="white">
                                <use xlink:href="#path-3"></use>
                            </mask>
                            <g id="Clip-2"></g>
                            <path d="M2.08601791,9.27045363 C1.96044696,8.70183043 1.39656228,8.3417024 0.827939077,8.46727335 C0.259315873,8.59284431 -0.100812155,9.15554436 0.024758802,9.72535219 C0.0484514355,9.83078441 8.18450177,46.2451774 10.152175,64.5275981 C11.1377885,73.6776931 12.1992185,83.5444903 13.7273934,91.7279259 C15.2863687,100.062994 17.363028,106.609269 20.4004236,108.837561 C21.9001673,109.936899 23.3620028,110.565939 24.7053751,110.753111 C26.0748093,110.945021 27.3163033,110.686771 28.352856,110.009162 C29.3657161,109.346953 30.160604,108.296185 30.6640724,106.887657 C30.88086,106.282311 31.0419699,105.604701 31.1450329,104.861937 C31.861735,106.237295 32.6329303,107.343741 33.3804328,107.971595 C33.4882343,108.061627 33.6007743,108.145736 33.714499,108.222737 C34.6325885,108.844669 35.6715105,109.127796 36.6950323,109.095811 C37.7458006,109.062641 38.779984,108.698959 39.6530576,108.035566 C40.5131002,107.381649 41.2144021,106.441051 41.6171769,105.248127 C41.7214245,104.937754 41.8055333,104.608426 41.8671342,104.264883 C42.3184788,104.718597 42.8231319,105.119002 43.3882012,105.445961 L43.3917551,105.447145 L43.3882012,105.449515 C44.2008586,105.917444 44.9767923,106.157924 45.7053408,106.189909 C46.8650952,106.239664 47.8424163,105.782396 48.608873,104.891553 C49.1798655,104.22579 49.6205485,103.313624 49.9155218,102.192962 C52.2326613,110.172641 55.2712416,118.012534 57.9899712,123.055511 C59.0644322,125.048061 60.1045388,126.631914 61.0475056,127.648328 C62.2807072,128.977484 63.4807391,129.461999 64.5800772,128.885083 C64.9591594,128.686065 65.288487,128.36266 65.5597676,127.911316 C66.7361069,125.951935 65.9139725,119.220858 64.2969503,111.132193 C61.3507713,96.3953747 55.842234,76.8027515 55.1551477,74.5057507 C55.1397474,74.4524422 55.1207933,74.4026877 55.0982853,74.3529332 C54.6291712,71.9505001 54.0214551,69.3111408 53.3106761,66.4348551 C49.7638889,52.1114735 40.957337,1.26471278 40.9324598,1.11900308 C40.8305814,0.546825981 40.2832816,0.161820687 39.7099199,0.262514379 C39.1365582,0.363208071 38.7515529,0.910507905 38.8534312,1.48505427 L2.08601791,9.27045363 Z" id="Fill-1" fill="#FFBB97" mask="url(#mask-4)"></path>
                        </g>
                        <g id="Group-6" stroke-width="1" fill="none" transform="translate(0.000000, 0.938228)">
                            <mask id="mask-6" fill="white">
                                <use xlink:href="#path-5"></use>
                            </mask>
                            <g id="Clip-5"></g>
                            <path d="M35.333772,93.1606195 C35.5635906,94.2599577 36.5989586,94.7610569 38.1235796,94.8593813 C38.2432274,95.976489 38.5891399,98.3185058 39.5344759,100.598922 C39.5380298,100.673554 39.5498761,100.747001 39.5700149,100.821633 C39.9834513,102.335592 39.9443585,103.597225 39.6138463,104.5781 C39.3544119,105.350479 38.9125443,105.948718 38.3794601,106.353862 C37.8605914,106.748345 37.2469522,106.962763 36.6285744,106.984086 C36.0362586,107.003041 35.4332811,106.837192 34.8978276,106.47351 C34.8492577,106.44271 34.7971339,106.402432 34.7414562,106.356232 C33.3933453,105.223724 31.8734629,101.877139 30.9269422,98.4026146 C30.0005602,95.0015371 29.6333244,91.5850594 30.5502293,90.2298407 C30.573922,90.1954864 30.5987992,90.1635013 30.6248611,90.1303317 C31.0406668,89.6351556 31.4991193,89.341367 31.9623103,89.2003958 C32.5179025,89.0345474 33.1090337,89.0689017 33.6705491,89.2323809 C34.2652342,89.4053371 34.8231958,89.7216337 35.2698019,90.097162 C35.6784998,90.4395205 35.9793963,90.807941 36.1132597,91.136084 C35.5316055,91.9167562 35.2188627,92.6180582 35.333772,93.1606195 M41.8030456,94.5632234 C43.5977626,94.2457421 45.6459907,93.741089 47.645649,93.1926045 C47.7380503,93.6344722 47.8328208,94.078709 47.9335145,94.5253152 C48.3362893,97.2002135 48.3303661,99.4794448 47.9785305,101.190053 C47.7676661,102.218313 47.4371538,103.008463 47.0059479,103.509562 C46.6706971,103.898121 46.2643685,104.100693 45.7976236,104.081739 C45.4138029,104.063969 44.9612736,103.912337 44.4447742,103.614994 L44.4435896,103.618548 C41.2877308,101.7954 40.4466423,96.6789756 40.2405164,94.7883034 C40.7380617,94.734995 41.2604843,94.6579939 41.8030456,94.5632234 M51.2019133,92.1702674 C54.1196611,91.2983785 55.6099278,89.1068099 56.039949,85.6536086 C58.01473,93.0883569 60.542734,103.115079 62.2272803,111.54018 C63.7519012,119.170393 64.6083899,125.386155 63.7436088,126.827852 C63.682008,126.932099 63.6322534,126.994885 63.5967145,127.01147 C63.4782513,127.074255 63.1240465,126.78402 62.5968854,126.215397 C61.7794895,125.334031 60.8436305,123.900627 59.8509091,122.058525 C56.3384762,115.54305 52.2751896,104.23811 50.0089892,94.1320175 C49.9319881,93.6332875 49.8419561,93.1227113 49.7400778,92.6002887 C50.2388077,92.454579 50.7280606,92.3112386 51.2019133,92.1702674 M40.9323413,1.11947693 C40.830463,0.546115202 40.2831632,0.161109908 39.7098014,0.262988232 C39.1364397,0.363681924 38.7514344,0.910981757 38.8533127,1.48434349 C38.87819,1.63123782 47.7013267,52.5715844 51.257591,66.9387974 C53.0143998,74.0311872 54.1161072,79.6333104 54.0580603,83.6361808 C54.0047518,87.2339072 52.9918918,89.4325836 50.601305,90.1457319 C47.7096191,91.010513 44.226802,91.9925727 41.4298866,92.4853794 C39.1648709,92.8857849 37.4696629,93.0682182 37.3997697,92.7305982 C37.0941347,91.2758705 47.4869084,84.5708552 47.5165242,84.5507165 C48.005777,84.2344198 48.1455636,83.5805031 47.8280823,83.0900656 C47.6373566,82.7939077 47.3234292,82.6268746 46.9964708,82.6114744 L46.9964708,82.6091052 C46.9715936,82.6079205 38.1472722,82.2643773 35.2093857,72.6309526 C35.0399834,72.0729911 34.4488522,71.7590637 33.8908906,71.928466 C33.3341138,72.0990529 33.0190017,72.6889995 33.1884041,73.2457764 C35.4676354,80.7208023 40.9003563,83.3317305 44.1971862,84.240343 C42.2899292,85.5683151 39.5249989,87.6035123 37.5869415,89.4965537 C37.3263225,89.1376103 37.002918,88.7916979 36.6321283,88.4813244 C35.9734731,87.929286 35.1477848,87.4625411 34.2581265,87.2031068 C33.3341138,86.9330108 32.3319154,86.8832562 31.3569635,87.1782295 C30.5135057,87.4352946 29.7055869,87.9399477 29.0090235,88.7715591 C28.9379456,88.855668 28.869237,88.9468846 28.8040822,89.0428398 L28.8005283,89.0475783 L28.7839435,89.0736402 C28.4048614,89.6446327 28.1667504,90.4063508 28.0471026,91.2948246 L27.897839,91.0815909 C27.2687996,90.2132559 26.5828978,89.5818472 25.8804113,89.2347501 C25.0251072,88.8082827 24.1591414,88.7822208 23.3358224,89.2110575 C22.7055984,89.5368312 22.1369752,90.1386241 21.667861,91.0389442 C19.2180427,95.7336395 22.1156518,102.784567 22.1239442,102.804706 C22.3442857,103.346083 22.9614788,103.605517 23.5028555,103.385175 C24.0430475,103.164834 24.3024819,102.548825 24.083325,102.007449 C24.0762172,101.989679 21.545844,95.82841 23.5360252,92.0127114 C23.7930902,91.5210892 24.0548938,91.2166389 24.3095897,91.0851448 C24.4908383,90.9915589 24.7076259,91.010513 24.9445522,91.1277915 C25.3354807,91.3208865 25.7560249,91.7295844 26.183677,92.3207156 C27.4109554,94.0147389 28.4984473,96.9810566 28.9959926,100.6854 C29.3039968,102.980031 29.161841,104.826872 28.6773266,106.180906 C28.338522,107.13335 27.8291304,107.825175 27.196537,108.237427 C26.588821,108.635463 25.8401338,108.783542 24.9943068,108.665079 C23.9992162,108.525292 22.8655236,108.023008 21.6512762,107.13335 C19.1185337,105.275848 17.2693236,99.1892101 15.801565,91.338656 C14.3053752,83.3352844 13.2439452,73.4578255 12.2583316,64.299438 C10.2835506,45.963709 2.10840745,9.37517507 2.08589945,9.27092748 C1.96032849,8.70111965 1.39644382,8.34099162 0.827820614,8.46774721 C0.25919741,8.59213353 -0.100930619,9.15601821 0.0246403388,9.72464141 C0.0483329723,9.83007363 8.18438331,46.2444667 10.1520565,64.5268873 C11.1376701,73.678167 12.1991001,83.5449642 13.7272749,91.7283998 C15.2862502,100.062284 17.3629095,106.609743 20.4014898,108.83685 C21.9000488,109.936189 23.363069,110.565228 24.7052566,110.753584 C26.0758755,110.945495 27.3161848,110.687245 28.3527376,110.009636 C29.3655976,109.347427 30.1604855,108.295474 30.663954,106.888131 C30.8807416,106.2816 31.0418515,105.605175 31.1449144,104.862411 C31.8616166,106.236584 32.6328118,107.344215 33.381499,107.972069 C33.4881159,108.060917 33.6006559,108.145026 33.7143805,108.223211 C34.6324701,108.843958 35.671392,109.12827 36.6949138,109.0951 C37.7456821,109.063115 38.7798656,108.698249 39.6529391,108.036039 C40.5129817,107.382123 41.2142836,106.441525 41.6170584,105.247416 C41.721306,104.937043 41.8054149,104.6089 41.8670157,104.265357 C42.3183604,104.719071 42.8230135,105.119476 43.3880828,105.44525 L43.3916367,105.446435 L43.3880828,105.449988 C44.2007401,105.917918 44.9766738,106.158398 45.7052223,106.190383 C46.8649767,106.240138 47.8434825,105.781685 48.6087546,104.890842 C49.179747,104.226264 49.6216146,103.312913 49.9154033,102.193436 C52.2325428,110.17193 55.2711231,118.013007 57.9898528,123.0548 C59.0643137,125.048535 60.1044203,126.632387 61.0485718,127.647617 C62.2817733,128.976774 63.4806206,129.462473 64.5799588,128.884372 C64.9590409,128.685354 65.2883685,128.363134 65.5596492,127.91179 C66.7359884,125.952409 65.9138541,119.221332 64.2968318,111.132667 C61.3506528,96.394664 55.8421156,76.8020407 55.1550292,74.5062245 C55.139629,74.4529161 55.1206749,74.4031616 55.0981669,74.353407 C54.6290527,71.950974 54.0213367,69.31043 53.3105577,66.4341443 C49.7637704,52.1119473 40.9572186,1.26518663 40.9323413,1.11947693" id="Fill-4" fill="#F79565" mask="url(#mask-6)"></path>
                        </g>
                        <path d="M71.5130157,107.940795 C71.5639548,108.26183 71.344798,108.565096 71.0225781,108.616035 C70.7003583,108.666974 70.3982773,108.447817 70.3473381,108.125598 L63.7892171,67.2451431 C63.738278,66.9252926 63.9586195,66.6220269 64.2796547,66.5699031 C64.6018745,66.5201485 64.9039555,66.7393054 64.9548947,67.0603406 L71.5130157,107.940795 Z M69.7644993,118.215106 C69.8154385,118.536141 69.595097,118.839406 69.2740618,118.890346 C68.951842,118.941285 68.6497609,118.722128 68.5988217,118.399908 L62.0395162,77.5206383 C61.988577,77.1996031 62.2089185,76.8963374 62.5299537,76.8453982 C62.8521735,76.7944591 63.1554392,77.0148005 63.2063784,77.3358357 L69.7644993,118.215106 Z" id="Fill-7" fill="#F79565"></path>
                    </g>
                </g>
            </g>
        </g>
    </g>
</svg>