<?xml version="1.0" encoding="UTF-8"?>
<svg width="23px" height="19px" viewBox="0 0 23 19" version="1.1" xmlns="http://www.w3.org/2000/svg" xmlns:xlink="http://www.w3.org/1999/xlink">
    <!-- Generator: Sketch 63.1 (92452) - https://sketch.com -->
    <title>icons8-profit-chart</title>
    <desc>Created with Sketch.</desc>
    <g id="‌Merchand" stroke="none" stroke-width="1" fill="none" fill-rule="evenodd">
        <g id="Merchant-register-step-2" transform="translate(-637.000000, -443.000000)" fill="#3090E9" fill-rule="nonzero">
            <g id="icons8-profit-chart" transform="translate(637.000000, 443.000000)">
                <path d="M17.5162037,0.188920455 L17.2233796,1.88920455 L18.9537037,2.18607955 L15.306713,4.50710227 L14.4282407,3.5625 L13.8958333,2.99573864 L13.2835648,3.45454545 L8.91782407,6.72017045 L8.1724537,5.96448864 L7.6400463,5.39772727 L7.05439815,5.88352273 L0.665509259,11.0653409 L1.73032407,12.4147727 L7.50694444,7.71875 L8.25231481,8.47443182 L8.78472222,8.98721591 L9.37037037,8.55539773 L13.6828704,5.28977273 L14.5347222,6.20738636 L15.0138889,6.72017045 L15.6261574,6.34232955 L19.9918981,3.5625 L19.5393519,5.50568182 L21.1898148,5.91051136 L22.1215278,1.91619318 L22.3344907,1.02556818 L21.4293981,0.863636364 L17.5162037,0.188920455 Z M21.2962963,6.90909091 L21.2962963,19 L23,19 L23,6.90909091 L21.2962963,6.90909091 Z M17.8888889,8.63636364 L17.8888889,19 L19.5925926,19 L19.5925926,8.63636364 L17.8888889,8.63636364 Z M14.4814815,10.3636364 L14.4814815,19 L16.1851852,19 L16.1851852,10.3636364 L14.4814815,10.3636364 Z M11.0740741,12.0909091 L11.0740741,19 L12.7777778,19 L12.7777778,12.0909091 L11.0740741,12.0909091 Z M7.66666667,13.8181818 L7.66666667,19 L9.37037037,19 L9.37037037,13.8181818 L7.66666667,13.8181818 Z M4.25925926,15.5454545 L4.25925926,19 L5.96296296,19 L5.96296296,15.5454545 L4.25925926,15.5454545 Z M0.851851852,17.2727273 L0.851851852,19 L2.55555556,19 L2.55555556,17.2727273 L0.851851852,17.2727273 Z" id="Shape"></path>
            </g>
        </g>
    </g>
</svg>