<?xml version="1.0" encoding="UTF-8"?>
<svg width="20px" height="23px" viewBox="0 0 20 23" version="1.1" xmlns="http://www.w3.org/2000/svg" xmlns:xlink="http://www.w3.org/1999/xlink">
    <!-- Generator: Sketch 63.1 (92452) - https://sketch.com -->
    <title>icons8-protected-shield</title>
    <desc>Created with Sketch.</desc>
    <g id="‌Merchand" stroke="none" stroke-width="1" fill="none" fill-rule="evenodd">
        <g id="Merchant-register-step-2" transform="translate(-923.000000, -442.000000)" fill="#009E00" fill-rule="nonzero">
            <g id="icons8-protected-shield" transform="translate(923.000000, 442.000000)">
                <path d="M10,0 C7.95454545,0 6.57670455,0.81578148 5.34090909,1.495 C4.10511364,2.17421852 2.98295455,2.76 0.909090909,2.76 L0,2.76 L0,3.68 C0,10.78125 2.37215909,15.402813 4.77272727,18.19875 C7.17329545,20.994688 9.65909091,22.0225 9.65909091,22.0225 L10,22.1375 L10.3409091,22.0225 C10.3409091,22.0225 12.8267045,21.01625 15.2272727,18.2275 C17.6278409,15.43875 20,10.8064065 20,3.68 L20,2.76 L19.0909091,2.76 C17.0276991,2.76 15.8948864,2.17421852 14.6590909,1.495 C13.4232955,0.81578148 12.0454545,0 10,0 Z M10,1.84 C11.5909091,1.84 12.5035509,2.40421852 13.7784091,3.105 C14.8544036,3.69796852 16.28196,4.26578148 18.125,4.45625 C17.9509945,10.680625 15.9161936,14.6373435 13.8636364,17.02 C12.0028409,19.1798435 10.4403409,19.8985935 10,20.09625 C9.55610818,19.895 7.99715909,19.1582815 6.13636364,16.99125 C4.08380727,14.6014065 2.04900545,10.651875 1.875,4.45625 C3.72514182,4.26578148 5.14559636,3.69796852 6.22159091,3.105 C7.49644909,2.40421852 8.40909091,1.84 10,1.84 Z M14.8011364,6.69875 L9.09090909,12.4775 L6.10795455,9.45875 L4.80113636,10.78125 L8.4375,14.46125 L9.09090909,15.09375 L9.74431818,14.46125 L16.1079545,8.02125 L14.8011364,6.69875 Z" id="Shape"></path>
            </g>
        </g>
    </g>
</svg>